2019-02-18 22:11:35.437 +03:00 [ERR] Не удалось вставить значение NULL в столбец "Name", таблицы "ZooKeeper.dbo.Zoos"; в столбце запрещены значения NULL. Ошибка в INSERT.
Выполнение данной инструкции было прервано.
2019-02-18 22:15:04.314 +03:00 [ERR] Не удалось вставить значение NULL в столбец "Name", таблицы "ZooKeeper.dbo.Zoos"; в столбце запрещены значения NULL. Ошибка в INSERT.
Выполнение данной инструкции было прервано.
2019-02-18 22:32:38.625 +03:00 [ERR] Не удалось вставить значение NULL в столбец "Name", таблицы "ZooKeeper.dbo.Animals"; в столбце запрещены значения NULL. Ошибка в INSERT.
Выполнение данной инструкции было прервано.
2019-02-18 22:49:03.739 +03:00 [ERR] Конфликт инструкции DELETE с ограничением REFERENCE "FK_Animals_Zoos_ZooUid". Конфликт произошел в базе данных "ZooKeeper", таблица "dbo.Animals", column 'ZooUid'.
Выполнение данной инструкции было прервано.
2019-02-18 22:50:13.034 +03:00 [ERR] Конфликт инструкции DELETE с ограничением REFERENCE "FK_Animals_Zoos_ZooUid". Конфликт произошел в базе данных "ZooKeeper", таблица "dbo.Animals", column 'ZooUid'.
Выполнение данной инструкции было прервано.
